20; 5
15.1 ; 2,0
500.5 ; 2
400 ; 13.2
3,1 ;4,3
a; g
3; 7
A,5 ; g
111111111.A ; 555
\x41 ; 55
5 ; 0
True ; False
1 ; 2; 3
1;

5;
;6
4
9; A
BBBB; JKBKBJ
1HBJ; 7
1111111,B ; 9.G
18; 105
3; 0
0 ; 3
0000; 5
15.1.1 ; 5
//\_ ; é&
%*$ ;()
"1;2"
"a;b"
"1;2;2"
"1"
"1;"
"[1,2,3]"
"a1;b2"
"1;b"
2654,34;456
ad4,8;zds5.3
5.5;6.3
4;-1
1;2;3
0
-8
